\relax 
\providecommand\hyper@newdestlabel[2]{}
\catcode `"\active 
\providecommand\HyperFirstAtBeginDocument{\AtBeginDocument}
\HyperFirstAtBeginDocument{\ifx\hyper@anchor\@undefined
\global\let\oldcontentsline\contentsline
\gdef\contentsline#1#2#3#4{\oldcontentsline{#1}{#2}{#3}}
\global\let\oldnewlabel\newlabel
\gdef\newlabel#1#2{\newlabelxx{#1}#2}
\gdef\newlabelxx#1#2#3#4#5#6{\oldnewlabel{#1}{{#2}{#3}}}
\AtEndDocument{\ifx\hyper@anchor\@undefined
\let\contentsline\oldcontentsline
\let\newlabel\oldnewlabel
\fi}
\fi}
\global\let\hyper@last\relax 
\gdef\HyperFirstAtBeginDocument#1{#1}
\providecommand\HyField@AuxAddToFields[1]{}
\providecommand\HyField@AuxAddToCoFields[2]{}
\babel@aux{portuguese}{}
\citation{supervisedlearning}
\citation{supervisedlearning}
\citation{optalgh}
\citation{chap-alberto-rui}
\citation{chap-alberto-rui}
\citation{sebenta}
\citation{sebenta}
\citation{sebenta}
\citation{sebenta}
\citation{sebenta}
\citation{sebenta}
\@writefile{toc}{\contentsline {chapter}{Lista de Figuras}{7}{chapter*.4}}
\@writefile{toc}{\contentsline {chapter}{\numberline {1}Introdu\IeC {\c c}\IeC {\~a}o}{9}{chapter.1}}
\@writefile{lof}{\addvspace {10\p@ }}
\@writefile{lot}{\addvspace {10\p@ }}
\citation{collect}
\citation{history}
\citation{historyA}
\citation{turing}
\@writefile{toc}{\contentsline {chapter}{\numberline {2}Introdu\IeC {\c c}\IeC {\~a}o a Machine Learning}{11}{chapter.2}}
\@writefile{lof}{\addvspace {10\p@ }}
\@writefile{lot}{\addvspace {10\p@ }}
\@writefile{toc}{\contentsline {section}{\numberline {2.1}Machine Learning}{11}{section.2.1}}
\@writefile{toc}{\contentsline {subsection}{\numberline {2.1.1}Exemplo de Machine Learning}{11}{subsection.2.1.1}}
\@writefile{toc}{\contentsline {subsection}{\numberline {2.1.2}Limita\IeC {\c c}\IeC {\~o}es de Machine Learning}{11}{subsection.2.1.2}}
\@writefile{toc}{\contentsline {section}{\numberline {2.2}Hist\IeC {\'o}ria de Machine Learning}{11}{section.2.2}}
\@writefile{toc}{\contentsline {subsection}{\numberline {2.2.1}Antes de 1940}{11}{subsection.2.2.1}}
\citation{alexnet}
\@writefile{toc}{\contentsline {subsection}{\numberline {2.2.2}Computing machinery and intelligence (1950)}{12}{subsection.2.2.2}}
\@writefile{toc}{\contentsline {subsection}{\numberline {2.2.3}Primeira rede neuronal (1951)}{12}{subsection.2.2.3}}
\@writefile{toc}{\contentsline {subsection}{\numberline {2.2.4}O primeiro 'inverno' da IA (1980)}{12}{subsection.2.2.4}}
\@writefile{toc}{\contentsline {subsection}{\numberline {2.2.5}Deep Blue ganha Garry Kasparov (1996)}{12}{subsection.2.2.5}}
\@writefile{toc}{\contentsline {subsection}{\numberline {2.2.6}S\IeC {\'e}culo XXI}{12}{subsection.2.2.6}}
\@writefile{toc}{\contentsline {subsubsection}{Backpropagation (2006)}{12}{section*.5}}
\@writefile{toc}{\contentsline {subsubsection}{GoogleBrain (2012)}{12}{section*.6}}
\citation{resnet}
\@writefile{toc}{\contentsline {subsubsection}{AlexNet (2012)}{13}{section*.7}}
\@writefile{lof}{\contentsline {figure}{\numberline {2.1}{\ignorespaces Arquitetura da AlexNet\relax }}{13}{figure.caption.8}}
\providecommand*\caption@xref[2]{\@setref\relax\@undefined{#1}}
\newlabel{fig:alexnet}{{2.1}{13}{Arquitetura da AlexNet\relax }{figure.caption.8}{}}
\@writefile{toc}{\contentsline {subsubsection}{DeepFace (2014)}{13}{section*.9}}
\@writefile{toc}{\contentsline {subsubsection}{ResNet (2015)}{13}{section*.10}}
\citation{unet}
\@writefile{lof}{\contentsline {figure}{\numberline {2.2}{\ignorespaces Arquitetura da ResNet\relax }}{14}{figure.caption.11}}
\newlabel{fig:resnet}{{2.2}{14}{Arquitetura da ResNet\relax }{figure.caption.11}{}}
\@writefile{toc}{\contentsline {subsubsection}{U-net (2015)}{14}{section*.12}}
\@writefile{lof}{\contentsline {figure}{\numberline {2.3}{\ignorespaces Exemplo de segmenta\IeC {\c c}\IeC {\~a}o de uma imagem\relax }}{14}{figure.caption.13}}
\newlabel{fig:cats-unet}{{2.3}{14}{Exemplo de segmentação de uma imagem\relax }{figure.caption.13}{}}
\@writefile{lof}{\contentsline {figure}{\numberline {2.4}{\ignorespaces Arquitetura da U-Net\relax }}{15}{figure.caption.14}}
\newlabel{fig:unet}{{2.4}{15}{Arquitetura da U-Net\relax }{figure.caption.14}{}}
\@writefile{toc}{\contentsline {section}{\numberline {2.3}Import\IeC {\^a}ncia das GPUs}{15}{section.2.3}}
\citation{supervisedlearning}
\citation{supervisedlearning}
\citation{supervisedlearning}
\citation{supervisedlearning}
\@writefile{toc}{\contentsline {chapter}{\numberline {3}Teoria de Machine Learning}{17}{chapter.3}}
\@writefile{lof}{\addvspace {10\p@ }}
\@writefile{lot}{\addvspace {10\p@ }}
\@writefile{toc}{\contentsline {section}{\numberline {3.1}Aprendizagem Supervisionada}{17}{section.3.1}}
\@writefile{lof}{\contentsline {figure}{\numberline {3.1}{\ignorespaces Diferentes modelos de aprendizagem supervisionada (\cite  {supervisedlearning}).\relax }}{17}{figure.caption.15}}
\newlabel{fig:img-16}{{3.1}{17}{Diferentes modelos de aprendizagem supervisionada (\cite {supervisedlearning}).\relax }{figure.caption.15}{}}
\@writefile{toc}{\contentsline {subsection}{\numberline {3.1.1}Nota\IeC {\c c}\IeC {\~o}es e conceitos gerais}{17}{subsection.3.1.1}}
\@writefile{toc}{\contentsline {subsubsection}{Fun\IeC {\c c}\IeC {\~a}o Hip\IeC {\'o}tese}{17}{section*.16}}
\@writefile{toc}{\contentsline {subsubsection}{Fun\IeC {\c c}\IeC {\~a}o de Perda}{17}{section*.17}}
\citation{optalgh}
\citation{secondalgh}
\@writefile{lof}{\contentsline {figure}{\numberline {3.2}{\ignorespaces Fun\IeC {\c c}\IeC {\~o}es de perda para aprendizagem supervisionada (\cite  {supervisedlearning}).\relax }}{18}{figure.caption.18}}
\newlabel{fig:img-17}{{3.2}{18}{Funções de perda para aprendizagem supervisionada (\cite {supervisedlearning}).\relax }{figure.caption.18}{}}
\@writefile{toc}{\contentsline {subsubsection}{Fun\IeC {\c c}\IeC {\~a}o de Custo}{18}{section*.19}}
\@writefile{toc}{\contentsline {subsubsection}{Algoritmos de Otimiza\IeC {\c c}\IeC {\~a}o}{18}{section*.20}}
\@writefile{toc}{\contentsline {paragraph}{Algoritmos de Primeira Ordem}{18}{section*.21}}
\@writefile{toc}{\contentsline {paragraph}{Algoritmos de Segunda Ordem}{18}{section*.22}}
\@writefile{toc}{\contentsline {paragraph}{Gradiente Descendente}{18}{section*.23}}
\citation{optalgh}
\citation{optalgh}
\citation{adam}
\citation{adadelta}
\@writefile{lof}{\contentsline {figure}{\numberline {3.3}{\ignorespaces Processo do gradiente descendente (\cite  {optalgh}).\relax }}{19}{figure.caption.24}}
\newlabel{fig:img-18}{{3.3}{19}{Processo do gradiente descendente (\cite {optalgh}).\relax }{figure.caption.24}{}}
\@writefile{toc}{\contentsline {subparagraph}{Stochastic Gradient Descent, SGD}{19}{section*.25}}
\@writefile{toc}{\contentsline {subparagraph}{Mini Batch Gradient Descent}{19}{section*.26}}
\@writefile{toc}{\contentsline {subparagraph}{Adam - \textit  {Adam Moment Estimation} (\cite  {adam})}{19}{section*.27}}
\@writefile{toc}{\contentsline {section}{\numberline {3.2}Redes neuronais}{20}{section.3.2}}
\@writefile{toc}{\contentsline {subsection}{\numberline {3.2.1}Arquitetura}{20}{subsection.3.2.1}}
\@writefile{lof}{\contentsline {figure}{\numberline {3.4}{\ignorespaces Arquitetura das redes neuronais.\relax }}{20}{figure.caption.28}}
\newlabel{fig:img-19}{{3.4}{20}{Arquitetura das redes neuronais.\relax }{figure.caption.28}{}}
\@writefile{toc}{\contentsline {subsection}{\numberline {3.2.2}Fun\IeC {\c c}\IeC {\~o}es de Ativa\IeC {\c c}\IeC {\~a}o}{20}{subsection.3.2.2}}
\@writefile{lof}{\contentsline {figure}{\numberline {3.5}{\ignorespaces Fun\IeC {\c c}\IeC {\~o}es de ativa\IeC {\c c}\IeC {\~a}o para redes neuronais.\relax }}{20}{figure.caption.29}}
\newlabel{fig:img-20}{{3.5}{20}{Funções de ativação para redes neuronais.\relax }{figure.caption.29}{}}
\@writefile{toc}{\contentsline {subsection}{\numberline {3.2.3}Perda de entropia cruzada}{20}{subsection.3.2.3}}
\@writefile{toc}{\contentsline {paragraph}{Fator de aprendizagem}{20}{section*.30}}
\@writefile{toc}{\contentsline {subsection}{\numberline {3.2.4}Propaga\IeC {\c c}\IeC {\~a}o para Tr\IeC {\'a}s}{21}{subsection.3.2.4}}
\citation{perlsite}
\citation{perlbook}
\@writefile{toc}{\contentsline {chapter}{\numberline {4}Ferramentas e Tecnologias}{23}{chapter.4}}
\@writefile{lof}{\addvspace {10\p@ }}
\@writefile{lot}{\addvspace {10\p@ }}
\@writefile{toc}{\contentsline {section}{\numberline {4.1}Linguagens de Programa\IeC {\c c}\IeC {\~a}o}{23}{section.4.1}}
\@writefile{toc}{\contentsline {subsection}{\numberline {4.1.1}Perl}{23}{subsection.4.1.1}}
\citation{cbook}
\citation{csite}
\citation{xssite}
\@writefile{toc}{\contentsline {subsection}{\numberline {4.1.2}C}{24}{subsection.4.1.2}}
\@writefile{toc}{\contentsline {subsection}{\numberline {4.1.3}XS}{24}{subsection.4.1.3}}
\@writefile{toc}{\contentsline {subsubsection}{C\IeC {\'o}digo em XS}{24}{section*.31}}
\citation{blas}
\@writefile{toc}{\contentsline {section}{\numberline {4.2}Bibliotecas}{25}{section.4.2}}
\@writefile{toc}{\contentsline {subsection}{\numberline {4.2.1}BLAS}{25}{subsection.4.2.1}}
\@writefile{toc}{\contentsline {subsubsection}{Funcionalidades BLAS}{25}{section*.32}}
\@writefile{toc}{\contentsline {paragraph}{Level 1}{25}{section*.33}}
\@writefile{toc}{\contentsline {paragraph}{Level 2}{25}{section*.34}}
\citation{lapack}
\citation{gita}
\citation{gitb}
\citation{unitest}
\@writefile{toc}{\contentsline {paragraph}{Level 3}{26}{section*.35}}
\@writefile{toc}{\contentsline {subsubsection}{Implementa\IeC {\c c}\IeC {\~o}es de BLAS}{26}{section*.36}}
\@writefile{toc}{\contentsline {subsection}{\numberline {4.2.2}LAPACK}{26}{subsection.4.2.2}}
\@writefile{toc}{\contentsline {section}{\numberline {4.3}Ambiente de Desenvolvimento}{26}{section.4.3}}
\@writefile{toc}{\contentsline {subsection}{\numberline {4.3.1}Controlo de Vers\IeC {\~o}es}{26}{subsection.4.3.1}}
\@writefile{toc}{\contentsline {subsubsection}{Git}{26}{section*.37}}
\@writefile{toc}{\contentsline {subsection}{\numberline {4.3.2}Testes unit\IeC {\'a}rios}{26}{subsection.4.3.2}}
\@writefile{lof}{\contentsline {figure}{\numberline {4.1}{\ignorespaces Diagrama da abordagem \texttt  {TDD}.\relax }}{27}{figure.caption.38}}
\newlabel{fig:unit-tests}{{4.1}{27}{Diagrama da abordagem \texttt {TDD}.\relax }{figure.caption.38}{}}
\citation{pod}
\citation{cpanb}
\citation{cpana}
\@writefile{toc}{\contentsline {subsection}{\numberline {4.3.3}POD (Plain Old Documentation)}{29}{subsection.4.3.3}}
\@writefile{toc}{\contentsline {subsection}{\numberline {4.3.4}CPAN}{29}{subsection.4.3.4}}
\@writefile{toc}{\contentsline {subsubsection}{CPAN Testers}{29}{section*.39}}
\@writefile{lof}{\contentsline {figure}{\numberline {4.2}{\ignorespaces CPAN Testers Matrix para o m\IeC {\'o}dulo Math-Lapack\relax }}{29}{figure.caption.40}}
\newlabel{fig:cpanmatrix}{{4.2}{29}{CPAN Testers Matrix para o módulo Math-Lapack\relax }{figure.caption.40}{}}
\@writefile{toc}{\contentsline {chapter}{\numberline {5}Math-Lapack}{31}{chapter.5}}
\@writefile{lof}{\addvspace {10\p@ }}
\@writefile{lot}{\addvspace {10\p@ }}
\@writefile{toc}{\contentsline {section}{\numberline {5.1}Math::Lapack::Matrix}{32}{section.5.1}}
\@writefile{toc}{\contentsline {subsection}{\numberline {5.1.1}Construtores}{32}{subsection.5.1.1}}
\@writefile{toc}{\contentsline {subsubsection}{zeros}{32}{section*.41}}
\@writefile{toc}{\contentsline {subsubsection}{uns}{33}{section*.42}}
\@writefile{toc}{\contentsline {subsubsection}{random}{33}{section*.43}}
\@writefile{toc}{\contentsline {subsubsection}{identity}{33}{section*.44}}
\@writefile{toc}{\contentsline {subsubsection}{new}{33}{section*.45}}
\@writefile{toc}{\contentsline {subsection}{\numberline {5.1.2}M\IeC {\'e}todos}{34}{subsection.5.1.2}}
\@writefile{toc}{\contentsline {subsubsection}{get element}{34}{section*.46}}
\@writefile{toc}{\contentsline {subsubsection}{set\_element}{34}{section*.47}}
\@writefile{toc}{\contentsline {subsubsection}{rows}{34}{section*.48}}
\@writefile{toc}{\contentsline {subsubsection}{columns}{35}{section*.49}}
\@writefile{toc}{\contentsline {subsubsection}{max}{35}{section*.50}}
\@writefile{toc}{\contentsline {subsubsection}{min}{35}{section*.51}}
\@writefile{toc}{\contentsline {subsubsection}{reshape}{35}{section*.52}}
\@writefile{toc}{\contentsline {subsubsection}{mean}{36}{section*.53}}
\@writefile{toc}{\contentsline {subsubsection}{std deviation}{36}{section*.54}}
\@writefile{toc}{\contentsline {subsubsection}{norm mean}{36}{section*.55}}
\@writefile{toc}{\contentsline {subsubsection}{norm std deviation}{37}{section*.56}}
\@writefile{toc}{\contentsline {subsection}{\numberline {5.1.3}Aritm\IeC {\'e}tica}{38}{subsection.5.1.3}}
\@writefile{toc}{\contentsline {subsubsection}{broadcasting}{38}{section*.57}}
\citation{overloading}
\@writefile{toc}{\contentsline {subsubsection}{overloading}{40}{section*.58}}
\@writefile{toc}{\contentsline {subsubsection}{Adi\IeC {\c c}\IeC {\~a}o}{41}{section*.59}}
\@writefile{toc}{\contentsline {subsubsection}{Subtra\IeC {\c c}\IeC {\~a}o}{41}{section*.60}}
\@writefile{toc}{\contentsline {subsubsection}{Divis\IeC {\~a}o}{41}{section*.61}}
\@writefile{toc}{\contentsline {subsubsection}{Multiplica\IeC {\c c}\IeC {\~a}o}{42}{section*.62}}
\@writefile{toc}{\contentsline {subsubsection}{Produto Interno}{42}{section*.63}}
\@writefile{lof}{\contentsline {figure}{\numberline {5.1}{\ignorespaces Ilustra\IeC {\c c}\IeC {\~a}o da diferen\IeC {\c c}a entre \textit  {column-major} e \textit  {row-major}\relax }}{42}{figure.caption.64}}
\newlabel{fig:img-6}{{5.1}{42}{Ilustração da diferença entre \textit {column-major} e \textit {row-major}\relax }{figure.caption.64}{}}
\@writefile{toc}{\contentsline {subsubsection}{Exponencial}{44}{section*.65}}
\@writefile{toc}{\contentsline {subsubsection}{Pot\IeC {\^e}ncia}{45}{section*.66}}
\@writefile{toc}{\contentsline {subsubsection}{Fun\IeC {\c c}\IeC {\~a}o Logar\IeC {\'\i }tmica}{45}{section*.67}}
\@writefile{toc}{\contentsline {subsubsection}{Transposta}{46}{section*.68}}
\@writefile{toc}{\contentsline {subsubsection}{Inversa}{46}{section*.69}}
\@writefile{toc}{\contentsline {subsubsection}{Concatena\IeC {\c c}\IeC {\~a}o}{47}{section*.70}}
\@writefile{toc}{\contentsline {subsubsection}{Append}{49}{section*.71}}
\@writefile{toc}{\contentsline {subsubsection}{Matriz para lista}{50}{section*.72}}
\@writefile{toc}{\contentsline {subsubsection}{sum}{50}{section*.73}}
\@writefile{toc}{\contentsline {subsubsection}{slice}{51}{section*.74}}
\@writefile{toc}{\contentsline {subsection}{\numberline {5.1.4}Leitura e Escrita de Matrizes}{53}{subsection.5.1.4}}
\@writefile{toc}{\contentsline {subsubsection}{save csv}{53}{section*.75}}
\@writefile{toc}{\contentsline {subsubsection}{read csv}{54}{section*.76}}
\@writefile{toc}{\contentsline {subsubsection}{save}{54}{section*.77}}
\@writefile{toc}{\contentsline {subsubsection}{read matrix}{55}{section*.78}}
\@writefile{toc}{\contentsline {subsubsection}{save matlab}{55}{section*.79}}
\citation{chap-alberto-rui}
\citation{dsl}
\@writefile{toc}{\contentsline {section}{\numberline {5.2}Math::Lapack::Expr}{56}{section.5.2}}
\@writefile{toc}{\contentsline {subsubsection}{Linguagens de Dom\IeC {\'\i }nio Especifico}{56}{section*.80}}
\@writefile{toc}{\contentsline {subsubsection}{Motiva\IeC {\c c}\IeC {\~a}o}{57}{section*.81}}
\@writefile{toc}{\contentsline {subsection}{\numberline {5.2.1}Arquitetura}{57}{subsection.5.2.1}}
\@writefile{lof}{\contentsline {figure}{\numberline {5.2}{\ignorespaces Arquitetura proposta.\relax }}{58}{figure.caption.82}}
\newlabel{fig:dsl-arq}{{5.2}{58}{Arquitetura proposta.\relax }{figure.caption.82}{}}
\@writefile{toc}{\contentsline {subsection}{\numberline {5.2.2}Cria\IeC {\c c}\IeC {\~a}o da AST}{58}{subsection.5.2.2}}
\@writefile{toc}{\contentsline {subsection}{\numberline {5.2.3}Otimiza\IeC {\c c}\IeC {\~a}o}{59}{subsection.5.2.3}}
\citation{chap-alberto-rui}
\citation{chap-alberto-rui}
\@writefile{toc}{\contentsline {subsubsection}{Produto Interno de duas matrizes com transposi\IeC {\c c}\IeC {\~a}o de uma}{60}{section*.83}}
\@writefile{lof}{\contentsline {figure}{\numberline {5.3}{\ignorespaces Exemplo da otimiza\IeC {\c c}\IeC {\~a}o do produto interno (\cite  {chap-alberto-rui}).\relax }}{60}{figure.caption.84}}
\newlabel{fig:img-8}{{5.3}{60}{Exemplo da otimização do produto interno (\cite {chap-alberto-rui}).\relax }{figure.caption.84}{}}
\citation{chap-alberto-rui}
\citation{chap-alberto-rui}
\@writefile{toc}{\contentsline {subsubsection}{Mesma opera\IeC {\c c}\IeC {\~a}o algebrica}{61}{section*.85}}
\@writefile{lof}{\contentsline {figure}{\numberline {5.4}{\ignorespaces Exemplo da otimiza\IeC {\c c}\IeC {\~a}o de uma sequ\IeC {\^e}ncia de $n-1$ somas (\cite  {chap-alberto-rui}).\relax }}{61}{figure.caption.86}}
\newlabel{fig:img-35}{{5.4}{61}{Exemplo da otimização de uma sequência de $n-1$ somas (\cite {chap-alberto-rui}).\relax }{figure.caption.86}{}}
\@writefile{toc}{\contentsline {subsection}{\numberline {5.2.4}Avalia\IeC {\c c}\IeC {\~a}o da AST}{61}{subsection.5.2.4}}
\@writefile{toc}{\contentsline {chapter}{\numberline {6}AI-ML}{65}{chapter.6}}
\@writefile{lof}{\addvspace {10\p@ }}
\@writefile{lot}{\addvspace {10\p@ }}
\@writefile{toc}{\contentsline {section}{\numberline {6.1}Nota\IeC {\c c}\IeC {\~o}es}{65}{section.6.1}}
\@writefile{toc}{\contentsline {subsubsection}{Hip\IeC {\'o}tese}{65}{section*.87}}
\@writefile{toc}{\contentsline {subsubsection}{Fun\IeC {\c c}\IeC {\~a}o de custo}{65}{section*.88}}
\@writefile{toc}{\contentsline {subsubsection}{Fun\IeC {\c c}\IeC {\~a}o de custo}{65}{section*.89}}
\@writefile{toc}{\contentsline {subsubsection}{Gradiente Descendente}{65}{section*.90}}
\citation{sebenta}
\citation{sebenta}
\citation{sebenta}
\citation{sebenta}
\@writefile{toc}{\contentsline {section}{\numberline {6.2}Regress\IeC {\~a}o Linear}{66}{section.6.2}}
\@writefile{lof}{\contentsline {figure}{\numberline {6.1}{\ignorespaces Pre\IeC {\c c}os de casas vs \IeC {\'a}rea em metros quadrados (\cite  {sebenta}).\relax }}{66}{figure.caption.91}}
\newlabel{fig:preco-casas}{{6.1}{66}{Preços de casas vs área em metros quadrados (\cite {sebenta}).\relax }{figure.caption.91}{}}
\@writefile{toc}{\contentsline {subsection}{\numberline {6.2.1}Hip\IeC {\'o}tese}{66}{subsection.6.2.1}}
\@writefile{lof}{\contentsline {figure}{\numberline {6.2}{\ignorespaces Regress\IeC {\~a}o para o pre\IeC {\c c}o das casas com base na vari\IeC {\'a}vel da sua \IeC {\'a}rea em $m^2$ (\cite  {sebenta}).\relax }}{67}{figure.caption.92}}
\newlabel{fig:preco-casas1}{{6.2}{67}{Regressão para o preço das casas com base na variável da sua área em $m^2$ (\cite {sebenta}).\relax }{figure.caption.92}{}}
\@writefile{toc}{\contentsline {subsection}{\numberline {6.2.2}Fun\IeC {\c c}\IeC {\~a}o de Custo}{68}{subsection.6.2.2}}
\@writefile{toc}{\contentsline {subsection}{\numberline {6.2.3}Gradiente Descendente}{68}{subsection.6.2.3}}
\citation{sebenta}
\@writefile{toc}{\contentsline {subsection}{\numberline {6.2.4}Equa\IeC {\c c}\IeC {\~a}o normal}{69}{subsection.6.2.4}}
\@writefile{toc}{\contentsline {subsubsection}{Equa\IeC {\c c}\IeC {\~a}o Normal vs Gradiente Descendente}{69}{section*.93}}
\@writefile{toc}{\contentsline {subsection}{\numberline {6.2.5}Treino e avalia\IeC {\c c}\IeC {\~a}o}{69}{subsection.6.2.5}}
\@writefile{toc}{\contentsline {subsubsection}{Exemplo 1: Equa\IeC {\c c}\IeC {\~a}o Normal}{70}{section*.94}}
\@writefile{lof}{\contentsline {figure}{\numberline {6.3}{\ignorespaces Fun\IeC {\c c}\IeC {\~a}o da regress\IeC {\~a}o linear com a equa\IeC {\c c}\IeC {\~a}o normal\relax }}{70}{figure.caption.95}}
\newlabel{fig:img-11}{{6.3}{70}{Função da regressão linear com a equação normal\relax }{figure.caption.95}{}}
\@writefile{toc}{\contentsline {subsubsection}{Exemplo 2: Gradiente Descendente}{70}{section*.96}}
\citation{sebenta}
\@writefile{lof}{\contentsline {figure}{\numberline {6.4}{\ignorespaces Custo da regress\IeC {\~a}o linear\relax }}{71}{figure.caption.97}}
\newlabel{fig:img-9}{{6.4}{71}{Custo da regressão linear\relax }{figure.caption.97}{}}
\@writefile{lof}{\contentsline {figure}{\numberline {6.5}{\ignorespaces Fun\IeC {\c c}\IeC {\~a}o da regress\IeC {\~a}o linear\relax }}{71}{figure.caption.98}}
\newlabel{fig:img-12}{{6.5}{71}{Função da regressão linear\relax }{figure.caption.98}{}}
\@writefile{toc}{\contentsline {subsubsection}{Exemplo 3: Gradiente Descendente com Regulariza\IeC {\c c}\IeC {\~a}o}{71}{section*.99}}
\@writefile{lof}{\contentsline {figure}{\numberline {6.6}{\ignorespaces Custo da regress\IeC {\~a}o linear com regulariza\IeC {\c c}\IeC {\~a}o\relax }}{71}{figure.caption.100}}
\newlabel{fig:img-10}{{6.6}{71}{Custo da regressão linear com regularização\relax }{figure.caption.100}{}}
\citation{sebenta}
\citation{sebenta}
\@writefile{lof}{\contentsline {figure}{\numberline {6.7}{\ignorespaces Fun\IeC {\c c}\IeC {\~a}o da regress\IeC {\~a}o linear com regulariza\IeC {\c c}\IeC {\~a}o\relax }}{72}{figure.caption.101}}
\newlabel{fig:img-13}{{6.7}{72}{Função da regressão linear com regularização\relax }{figure.caption.101}{}}
\@writefile{toc}{\contentsline {section}{\numberline {6.3}Regress\IeC {\~a}o Log\IeC {\'\i }stica}{72}{section.6.3}}
\@writefile{toc}{\contentsline {subsection}{\numberline {6.3.1}Fun\IeC {\c c}\IeC {\~a}o Hip\IeC {\'o}tese}{72}{subsection.6.3.1}}
\@writefile{lof}{\contentsline {figure}{\numberline {6.8}{\ignorespaces Tamanho do tumor vs Malignidade (dados fict\IeC {\'\i }cios) (\cite  {sebenta}).\relax }}{73}{figure.caption.102}}
\newlabel{fig:img-1}{{6.8}{73}{Tamanho do tumor vs Malignidade (dados fictícios) (\cite {sebenta}).\relax }{figure.caption.102}{}}
\citation{sebenta}
\citation{sebenta}
\citation{sebenta}
\citation{sebenta}
\@writefile{toc}{\contentsline {subsection}{\numberline {6.3.2}Fun\IeC {\c c}\IeC {\~a}o de Custo}{74}{subsection.6.3.2}}
\@writefile{lof}{\contentsline {figure}{\numberline {6.9}{\ignorespaces Fun\IeC {\c c}\IeC {\~a}o n\IeC {\~a}o convexa e fun\IeC {\c c}\IeC {\~a}o convexa (\cite  {sebenta}).\relax }}{74}{figure.caption.103}}
\newlabel{fig:img-3}{{6.9}{74}{Função não convexa e função convexa (\cite {sebenta}).\relax }{figure.caption.103}{}}
\@writefile{lof}{\contentsline {figure}{\numberline {6.10}{\ignorespaces Fun\IeC {\c c}\IeC {\~a}o de custo para fun\IeC {\c c}\IeC {\~a}o log\IeC {\'\i }stica (\cite  {sebenta}).\relax }}{75}{figure.caption.104}}
\newlabel{fig:img-4}{{6.10}{75}{Função de custo para função logística (\cite {sebenta}).\relax }{figure.caption.104}{}}
\@writefile{toc}{\contentsline {subsection}{\numberline {6.3.3}Gradiente Descendente}{75}{subsection.6.3.3}}
\@writefile{toc}{\contentsline {subsection}{\numberline {6.3.4}Treino e avalia\IeC {\c c}\IeC {\~a}o}{76}{subsection.6.3.4}}
\@writefile{lof}{\contentsline {figure}{\numberline {6.11}{\ignorespaces Matriz confus\IeC {\~a}o.\relax }}{77}{figure.caption.105}}
\newlabel{fig:matriz-conf}{{6.11}{77}{Matriz confusão.\relax }{figure.caption.105}{}}
\@writefile{toc}{\contentsline {subsubsection}{Accuracy}{77}{section*.106}}
\@writefile{toc}{\contentsline {subsubsection}{Precision}{77}{section*.107}}
\@writefile{toc}{\contentsline {subsubsection}{Recall}{78}{section*.108}}
\@writefile{toc}{\contentsline {subsubsection}{F1}{78}{section*.109}}
\@writefile{toc}{\contentsline {subsubsection}{Treino da Regress\IeC {\~a}o Log\IeC {\'\i }stica}{78}{section*.110}}
\@writefile{lof}{\contentsline {figure}{\numberline {6.12}{\ignorespaces Gr\IeC {\'a}fico do custo da regress\IeC {\~a}o log\IeC {\'\i }stica neste exemplo de treino\relax }}{78}{figure.caption.111}}
\newlabel{fig:img-14}{{6.12}{78}{Gráfico do custo da regressão logística neste exemplo de treino\relax }{figure.caption.111}{}}
\@writefile{toc}{\contentsline {subsubsection}{Treino da Regress\IeC {\~a}o Log\IeC {\'\i }stica com Regulariza\IeC {\c c}\IeC {\~a}o}{78}{section*.112}}
\citation{sebenta}
\citation{sebenta}
\citation{sebenta}
\@writefile{lof}{\contentsline {figure}{\numberline {6.13}{\ignorespaces Gr\IeC {\'a}fico do custo da regress\IeC {\~a}o log\IeC {\'\i }stica com regulariza\IeC {\c c}\IeC {\~a}o neste exemplo de treino\relax }}{79}{figure.caption.113}}
\newlabel{fig:img-15}{{6.13}{79}{Gráfico do custo da regressão logística com regularização neste exemplo de treino\relax }{figure.caption.113}{}}
\@writefile{toc}{\contentsline {section}{\numberline {6.4}Redes Neuronais}{79}{section.6.4}}
\@writefile{toc}{\contentsline {subsection}{\numberline {6.4.1}Modelo de uma Rede Neuronal}{79}{subsection.6.4.1}}
\@writefile{lof}{\contentsline {figure}{\numberline {6.14}{\ignorespaces Esquema de um neur\IeC {\'o}nio (\cite  {sebenta}).\relax }}{80}{figure.caption.114}}
\newlabel{fig:neuronio}{{6.14}{80}{Esquema de um neurónio (\cite {sebenta}).\relax }{figure.caption.114}{}}
\@writefile{toc}{\contentsline {subsection}{\numberline {6.4.2}Unidades Log\IeC {\'\i }sticas}{80}{subsection.6.4.2}}
\@writefile{lof}{\contentsline {figure}{\numberline {6.15}{\ignorespaces Unidade Log\IeC {\'\i }stica\relax }}{80}{figure.caption.115}}
\newlabel{logistic-unit}{{6.15}{80}{Unidade Logística\relax }{figure.caption.115}{}}
\@writefile{lof}{\contentsline {figure}{\numberline {6.16}{\ignorespaces Rede Neuronal\relax }}{81}{figure.caption.116}}
\newlabel{neural-net}{{6.16}{81}{Rede Neuronal\relax }{figure.caption.116}{}}
\@writefile{toc}{\contentsline {subsection}{\numberline {6.4.3}Fun\IeC {\c c}\IeC {\~o}es de Ativa\IeC {\c c}\IeC {\~a}o}{81}{subsection.6.4.3}}
\@writefile{toc}{\contentsline {subsubsection}{Sigmoid}{81}{section*.117}}
\@writefile{toc}{\contentsline {subsubsection}{ReLU}{82}{section*.118}}
\@writefile{toc}{\contentsline {subsubsection}{Leaky ReLU}{82}{section*.119}}
\@writefile{toc}{\contentsline {subsubsection}{Tanh}{83}{section*.120}}
\@writefile{toc}{\contentsline {subsubsection}{M\IeC {\'u}ltiplas Unidades de Sa\IeC {\'\i }da}{83}{section*.121}}
\@writefile{lof}{\contentsline {figure}{\numberline {6.17}{\ignorespaces Rede neuronal para a classifica\IeC {\c c}\IeC {\~a}o em 4 classes.\relax }}{84}{figure.caption.122}}
\newlabel{nn-softmax}{{6.17}{84}{Rede neuronal para a classificação em 4 classes.\relax }{figure.caption.122}{}}
\@writefile{toc}{\contentsline {subsection}{\numberline {6.4.4}Propaga\IeC {\c c}\IeC {\~a}o para a frente}{84}{subsection.6.4.4}}
\@writefile{toc}{\contentsline {subsubsection}{Inicializa\IeC {\c c}\IeC {\~a}o correta das matrizes}{86}{section*.123}}
\@writefile{toc}{\contentsline {subsection}{\numberline {6.4.5}Fun\IeC {\c c}\IeC {\~a}o de Custo}{86}{subsection.6.4.5}}
\@writefile{toc}{\contentsline {subsection}{\numberline {6.4.6}Propaga\IeC {\c c}\IeC {\~a}o para tr\IeC {\'a}s}{87}{subsection.6.4.6}}
\@writefile{toc}{\contentsline {subsection}{\numberline {6.4.7}Treino e avalia\IeC {\c c}\IeC {\~a}o}{88}{subsection.6.4.7}}
\@writefile{toc}{\contentsline {chapter}{\numberline {7}Conclus\IeC {\~a}o}{91}{chapter.7}}
\@writefile{lof}{\addvspace {10\p@ }}
\@writefile{lot}{\addvspace {10\p@ }}
\bibstyle{apalike}
\bibdata{bibliografia}
\bibcite{blas}{bla, }
\bibcite{cpanb}{cpa, a}
\bibcite{lapack}{lap, }
\bibcite{overloading}{ove, }
\bibcite{cpana}{cpa, b}
\bibcite{pod}{pod, }
\bibcite{unitest}{uni, }
\bibcite{supervisedlearning}{AMIDI and AMIDI, 2018}
\bibcite{perlsite}{Balakrishnan, 2018}
\bibcite{history}{BBC, }
\bibcite{gita}{BitBucket, }
\bibcite{xssite}{Farrell, 2017}
\bibcite{resnet}{He et~al., 2015}
\bibcite{gitb}{IBM, }
\bibcite{cbook}{Kernighan and Ritchie, 1998}
\bibcite{adam}{Kingma and Ba, 2014}
\bibcite{dsl}{Kosar et~al., 2015}
\bibcite{historyA}{Mayo et~al., }
\bibcite{unet}{Ronneberger et~al., 2015}
\bibcite{perlbook}{Schwartz et~al., 2011}
\bibcite{collect}{Segaran, 2007}
\bibcite{sebenta}{Sim\IeC {\~o}es, 2018}
\bibcite{chap-alberto-rui}{Sim\IeC {\~o}es and da~Costa~Meira, 2019}
\bibcite{alexnet}{Sutskever and Hinton, 2012}
\bibcite{csite}{Trejo, 2015}
\bibcite{turing}{Turing, 1950}
\bibcite{optalgh}{Walia, 2017}
\@writefile{toc}{\contentsline {chapter}{Bibliografia}{93}{chapter*.124}}
\bibcite{secondalgh}{Ye, }
\bibcite{adadelta}{Zeiler, 2012}
